<svg width="21" height="21" viewBox="0 0 21 21" fill="none" xmlns="http://www.w3.org/2000/svg">
<path d="M7.125 16.125H4.875V8.25H7.125V16.125ZM11.625 16.125H9.375V4.875H11.625V16.125ZM16.125 16.125H13.875V11.625H16.125V16.125ZM18.375 18.375H2.625V2.625H18.375V18.4875M18.375 0.375H2.625C1.3875 0.375 0.375 1.3875 0.375 2.625V18.375C0.375 19.6125 1.3875 20.625 2.625 20.625H18.375C19.6125 20.625 20.625 19.6125 20.625 18.375V2.625C20.625 1.3875 19.6125 0.375 18.375 0.375Z" fill="white"/>
</svg>
