<svg width="36" height="36" viewBox="0 0 36 36" fill="none" xmlns="http://www.w3.org/2000/svg">
<path d="M34.1133 0.888805L35.1007 1.8655C36.4612 3.213 36.2554 5.60175 34.6371 7.20087L14.2762 27.3422L7.67947 29.7293C6.85112 30.0306 6.04451 29.6399 5.88051 28.8602C5.82509 28.5774 5.85118 28.2848 5.95582 28.016L8.41579 21.4341L28.7198 1.34735C30.338 -0.251771 32.7528 -0.457041 34.1133 0.89046V0.888805ZM13.3876 2.89185C13.6074 2.89185 13.825 2.93467 14.028 3.01786C14.2311 3.10105 14.4155 3.22299 14.5709 3.37671C14.7263 3.53042 14.8496 3.71292 14.9337 3.91376C15.0178 4.1146 15.0611 4.32986 15.0611 4.54726C15.0611 4.76465 15.0178 4.97991 14.9337 5.18075C14.8496 5.3816 14.7263 5.56409 14.5709 5.71781C14.4155 5.87152 14.2311 5.99346 14.028 6.07665C13.825 6.15984 13.6074 6.20266 13.3876 6.20266H6.69381C5.80616 6.20266 4.95486 6.55148 4.32719 7.17238C3.69952 7.79328 3.34691 8.6354 3.34691 9.51348V29.3784C3.34691 30.2565 3.69952 31.0986 4.32719 31.7195C4.95486 32.3404 5.80616 32.6892 6.69381 32.6892H26.7752C27.6629 32.6892 28.5142 32.3404 29.1419 31.7195C29.7695 31.0986 30.1221 30.2565 30.1221 29.3784V22.7567C30.1221 22.3177 30.2985 21.8966 30.6123 21.5862C30.9261 21.2757 31.3518 21.1013 31.7956 21.1013C32.2394 21.1013 32.6651 21.2757 32.9789 21.5862C33.2927 21.8966 33.4691 22.3177 33.4691 22.7567V29.3784C33.4691 31.1345 32.7638 32.8188 31.5085 34.0606C30.2531 35.3024 28.5505 36 26.7752 36H6.69381C4.9185 36 3.2159 35.3024 1.96057 34.0606C0.705239 32.8188 0 31.1345 0 29.3784V9.51348C0 7.75731 0.705239 6.07308 1.96057 4.83128C3.2159 3.58948 4.9185 2.89185 6.69381 2.89185H13.3876Z" fill="#34B7F1"/>
</svg>
