{
  "admin": 1,
  "channel": "wa_web",
  "csrf": "AAccUfslE0n03WmoM0ceyoxYwYLGf0e1zBxlpgWj9Tyn1CZy1aybVRoqEn2Ylgt1tF70KYMdLrkDIMXsGDcIGt9Oo3qf6qaK-Q",
  "domain": "niswey.com",
  "email": "praveen@niswey.com",
  "fcm_token": "e58bTbFvnZofQ5EHPeY6Ap:APA91bE-3c3QProZXR9_DCvr1sLWcwIG7xHRxgznVnvEdz5XYOu7Wmns7Kh_fQjI9QCqVy4HnmUUC_-V8IZvek2Kz8gDDrNunEXbs8EnX8t1YBPZ6DISFw0A_DGzxCKFC8vMBq8qQdRd",
  "instance_id": 1,
  "instances": [
    {
      "id": 1,
      "phone": "919599509157",
      "status": 1,
      "u_id": 561,
      "users": null,
      "version": 1
    }
  ],
  "level": 2,
  "message": "User has instance_id",
  "name": "Mayank",
  "origin": "https://app.hubspot.com",
  "owner": 1,
  "portal_id": "7222284",
  "portal_name": "Niswey",
  "status": "ok",
  "uid": 561,
  "user_id": "QW1mWGZ0NUxZUjJmNjdzSUZXL1h2RXVJbkJ3SytkaTdmSURrTjl4Wm15QT0="
}
