<svg width="12" height="12" viewBox="0 0 12 12" fill="none" xmlns="http://www.w3.org/2000/svg">
<path d="M10.6667 10.6667H1.33333V1.33333H6V0H1.33333C0.979711 0 0.640573 0.140476 0.390524 0.390524C0.140476 0.640573 0 0.979711 0 1.33333V10.6667C0 11.0203 0.140476 11.3594 0.390524 11.6095C0.640573 11.8595 0.979711 12 1.33333 12H10.6667C11.4 12 12 11.4 12 10.6667V6H10.6667V10.6667ZM7.33333 0V1.33333H9.72667L3.17333 7.88667L4.11333 8.82667L10.6667 2.27333V4.66667H12V0H7.33333Z" fill="black" fill-opacity="0.8"/>
</svg>
